[
{
  "fields": {
    "username": "root",
    "first_name": "",
    "last_name": "",
    "is_active": true,
    "is_superuser": true,
    "is_staff": true,
    "last_login": "2015-10-29T00:26:04.951Z",
    "groups": [],
    "user_permissions": [],
    "password": "pbkdf2_sha256$20000$W2uG8mzDxjcl$l88pjMm0/0BwcOonInimHQdH8CLFR31brbpBuK8PFhY=",
    "email": "eduardoaenriquez@gmail.com",
    "date_joined": "2015-10-29T00:25:32.367Z"
  },
  "model": "auth.user",
  "pk": 1
},
{
  "fields": {
    "username": "mantra",
    "first_name": "",
    "last_name": "",
    "is_active": true,
    "is_superuser": true,
    "is_staff": true,
    "last_login": null,
    "groups": [],
    "user_permissions": [],
    "password": "pbkdf2_sha256$20000$aYYdhV7Jr5lZ$myGUm83IBO+795aFnagzJyKcWb/8KVOWeCKpzxX4JoQ=",
    "email": "eduardoaenriquez@gmail.com",
    "date_joined": "2015-10-29T00:44:44.401Z"
  },
  "model": "auth.user",
  "pk": 2
}
]
